0 1301.02722168 1142.52807617 0.0 0.0 0.0 2.06989319296
1 315.506011963 1884.51782227 0.0 0.0 0.0 2.51889185134
2 1058.07861328 299.65045166 0.0 0.0 0.0 3.62897553231
3 490.031585693 553.38458252 0.0 0.0 0.0 3.75473453159
4 1803.49047852 294.97052002 0.0 0.0 0.0 4.69455033261
5 2374.95019531 441.077423096 0.0 0.0 0.0 5.12968975765
6 2042.83190918 1512.94580078 0.0 0.0 0.0 5.23663047322
7 1587.44128418 1399.13464355 0.0 0.0 0.0 5.98011524333
8 23.5306358337 144.311203003 0.0 0.0 0.0 4.77745044205
9 1763.21520996 521.332458496 0.0 0.0 0.0 4.97257563691
10 1128.88427734 722.430664062 0.0 0.0 0.0 5.10906690015
11 2094.91357422 1469.58044434 0.0 0.0 0.0 5.41572385289
12 429.217254639 992.842102051 0.0 0.0 0.0 5.73211785718
13 2569.13330078 941.119873047 0.0 0.0 0.0 5.79720151385
14 937.931213379 1194.38745117 0.0 0.0 0.0 5.96855965379
16 1469.10266113 882.532470703 0.0 0.0 0.0 5.09381641876
17 1060.4407959 833.812072754 0.0 0.0 0.0 5.26603859165
18 588.56652832 1126.49987793 0.0 0.0 0.0 5.73459207965
19 2311.95288086 1113.39343262 0.0 0.0 0.0 5.84833218762
20 2349.38720703 595.263000488 0.0 0.0 0.0 5.95790773403
21 1280.04248047 1631.35522461 0.0 0.0 0.0 5.98901747343
24 1493.58996582 460.204467773 0.0 0.0 0.0 5.59562472246
25 1152.89953613 542.359191895 0.0 0.0 0.0 5.68602163258
32 1287.13061523 725.389465332 0.0 0.0 0.0 5.8282596568
33 1810.99279785 926.271057129 0.0 0.0 0.0 5.87164367797
40 1415.00512695 893.880249023 0.0 0.0 0.0 5.94731264743
